38
lj38_benchmark
H      50.000000000000000     50.000000000000000     50.000000000000000
H      50.266700800203679     50.398879975018012     49.617866517471562
H      50.055034984472570     51.026179650813539     50.024888844050047
H      50.161463917463472     50.657633174529323     50.405128961697976
H      50.371743336250226     51.699391936202353     49.871788279518327
H      49.936153127356704     49.391330183152270     50.177135145046563
H      50.832831578279077     50.047649581754293     49.593883771820309
H      50.570953996619352     49.771316962574936     50.379551956438981
H      50.487664355423817     49.951356390279372     49.041146686505236
H      50.033842302064741     52.256315532596076     49.762091911403282
H      50.807407556796576     50.872667276557024     49.347328109709800
H      50.562503438027072     50.132419171945628     48.330749333175568
H      50.126957444037373     50.832617630892990     49.093350247979821
H      50.019145316411993     50.298908889956657     48.845735858030793
H      49.724152218583932     50.656917167405673     49.401438961104731
H      50.221523793982733     49.518998889490732     49.438207059216502
H      51.283260970961926     50.110203550581929     48.113150057018956
H      50.690916660162763     49.283481166814973     50.517942056211140
H      50.432569204806668     48.951248891026793     49.760447132809944
H      50.918613375078884     51.404119185231615     49.156649143041363
H      51.204124010303424     51.821469448901233     48.600875979198840
H      51.478541413554062     50.584690824123420     47.552483281567696
H      49.834475164593805     50.152389219471459     49.448344614671633
H      51.924473525238454     50.906071927601246     48.078202060460505
H      51.597089791435479     51.079889170197625     47.446497829083974
H      50.645341899189376     51.857539612081865     50.474722204744694
H      51.185955883542348     49.076910348591326     49.962244970959134
H      51.859884455305746     51.349539087110941     48.405974004028181
H      50.819864474767193     49.018283682496737     49.283635654638786
H      50.993424464296361     49.711237013113120     51.125330760509001
H      51.097047042881179     49.811690237537483     51.600909065837300
H      51.569258729364392     49.773250295983196     51.210603287481213
H      51.192884916432305     49.322401472261646     51.731199842623219
H      50.703137660566497     48.575253645002803     49.996460945197356
H      49.511057516965700     50.923660766093477     48.877539500460948
H      51.810776988470188     48.577749086911510     49.954471596814450
H      49.664335285054868     49.366942860599153     49.191659008704015
H      51.363599585386282     52.341470598596771     48.405764914773521
