38
lj38_benchmark
H      50.000000000000000     50.000000000000000     50.000000000000000
H      49.806602495510369     50.324261539069688     49.364390015770987
H      50.440623844652215     49.603301938381556     49.501514408104036
H      49.700943876886477     50.802949313698811     49.055835498851053
H      50.369744082459036     50.154163897742116     50.574435097548417
H      50.131427620452108     49.784312580699044     51.181006388614655
H      49.976275435036470     49.960394003304835     48.922359677686217
H      49.291515072841165     50.499654476277072     48.948193186295370
H      49.659718764582230     51.431212179886565     49.155306772776186
H      48.882500791728049     50.048764640924631     49.134787855047563
H      50.254019162022487     51.783264089145263     49.315584885265665
H      49.648476864057479     51.267706140902469     49.743180835940301
H      49.298499007133273     50.144119670988580     50.345462741135414
H      50.456848660440365     49.617949106586167     48.737328085480591
H      50.484478869525454     49.122323554076083     51.082424029953721
H      50.749602503114197     51.722123800927783     49.134270535047492
H      49.176481265120479     49.912541190051108     49.878420291206623
H      49.540937138985825     49.806249180744331     51.589077193667038
H      50.602197309271446     50.233282739221636     51.173482741463069
H      51.028014462230246     50.238271590793154     51.806221637062414
H      49.982618647751472     50.730561171461630     48.518029730669141
H      50.441371080508119     49.414541844276208     48.070475050596599
H      49.130314450883546     49.380395039957683     50.453750423859546
H      51.316423921069429     50.196581601940068     52.277042394703244
H      49.431742885159466     48.885010272791376     49.963726338842818
H      48.929892729905887     49.604425230715236     51.589762527785993
H      48.871470646544850     48.522381136054570     50.375618745673982
H      49.535214590022790     51.389005823664334     50.359072703700541
H      50.575932710603070     49.689284766947175     52.116329174085699
H      48.444773004921224     49.512357026106997     51.136734003459708
H      49.886140435111479     49.652787808909686     47.992050039615172
H      50.907557040851188     49.954954642162235     48.728249379460550
H      49.761352816660548     49.567485366711331     48.580599152907723
H      51.693368652258528     50.070651359266719     48.739488987528745
H      50.465312138579591     50.094072647418088     48.094893006574679
H      52.307705443951249     50.050585053731815     49.027458080654696
H      51.010780016780309     52.096905681613038     49.490783547780218
H      48.484271102292766     49.366195064224030     52.090941139485849
