38
lj38_benchmark
H      50.000000000000000     50.000000000000000     50.000000000000000
H      50.448744504444463     49.742171966180358     50.564649056766392
H      51.122897363885585     50.088095797020024     50.623870272010002
H      50.948155605117392     49.554148547303519     50.115148404380442
H      50.854587408902958     50.004365747008215     49.634243910106605
H      51.388831162101738     50.629632757013994     50.660185486629373
H      51.735523213249351     51.131536808750958     50.951771276721892
H      50.651229888782396     50.654250393705112     49.761604694427014
H      50.214339112030281     49.807302763771958     51.063028778816260
H      50.467028335806368     50.224110125737624     51.236254212159537
H      50.930775740061605     50.341083910207779     48.992624830991119
H      51.101656618068361     51.110835941326584     49.936616189865902
H      51.413436409363683     49.741413320781980     49.885676346407358
H      51.869330753908280     49.738637930824694     50.106497734206911
H      50.385766033294452     51.076372515001097     49.784121190995762
H      50.787151798723571     51.406018219501036     50.222051014198470
H      50.909743068367206     50.574989685728411     50.948208067432361
H      50.356144428912778     51.580607168218137     49.192757335130530
H      50.393350422296763     50.283250976246201     48.771568875859693
H      49.963031469505921     51.475797921751358     50.165448243013088
H      52.198588694471752     51.174651965170042     50.478190682587289
H      52.439261692062004     50.425825877933505     50.358059936697181
H      49.282359581526975     50.048040932087432     49.797401532537727
H      52.683095293634501     51.148947513428404     50.956933811573471
H      48.718462000546275     49.960535793430694     49.682985570823064
H      48.976116466117816     50.665400996573688     49.776625407582756
H      50.290360058056976     49.744797148452179     48.707994502307287
H      50.516640454839283     49.696719166660749     48.222860010699272
H      52.959016932524015     50.065560321873768     50.643914483767233
H      48.692196598069700     50.084048075403395     49.139205232080130
H      52.613508313409746     51.759746668778241     51.208781200396160
H      50.248787512438987     50.789059540331351     50.846707966844832
H      51.079277313252710     51.807705666225054     50.715839374278481
H      51.555585809866095     51.128675940164520     50.443312516502957
H      52.946013275251865     49.757785937505091     50.058834131588192
H      50.020299766323951     50.193406748607700     51.597123175107662
H      50.752088709107490     49.313306905611313     50.742203543152584
H      52.877961890690521     50.228142568727478     51.188956020683065
