38
lj38_benchmark
H      50.000000000000000     50.000000000000000     50.000000000000000
H      50.058303699727588     50.005306738305222     49.313144607745855
H      50.088833087907943     50.645815113436647     49.640754430627240
H      50.145489780531577     49.523823395320505     50.196713066363344
H      50.137359270436455     49.317189853257162     49.269425145988961
H      49.333297131376632     49.731592930993095     50.018256947512846
H      49.486020617984053     49.991132718004543     49.389375593792536
H      50.041743655711770     49.000089464146683     49.648300034814255
H      49.378309690781691     49.841000428161699     48.704755102151772
H      50.747720084517923     49.233107791366564     50.383530027835604
H      48.982618591356349     50.458934381275249     48.594508494700939
H      49.569337057173797     50.467027678475660     49.001558005664734
H      49.637302981421961     49.049501175646782     50.375394164309441
H      49.163548892734916     50.124003532371383     50.311422169686622
H      48.860121431870112     50.286040668027638     49.511151524274453
H      49.815263428384078     48.772031308974192     51.001151545103220
H      48.649098477993448     49.839921782017107     48.391004783552937
H      48.915176820253606     49.448253230081761     49.347465472633758
H      48.714201448303285     49.953502634060769     47.801754599460260
H      49.581440557355442     48.626240801946395     51.642965401270033
H      50.155020425362544     48.324258630524454     50.934471898928550
H      49.136747717726230     49.008868583737183     49.840237443895873
H      50.052818622980297     48.933222184884798     51.425240532728701
H      49.771950272932038     50.663123579013039     48.356463794632766
H      50.646039749777273     50.933521215225042     50.041420164463020
H      50.728379317636538     49.666145737988067     49.939216355740676
H      48.913669692369020     50.948446546623799     49.696712344223720
H      48.198570863725820     50.448331541226651     49.404786203249579
H      48.455050300473737     49.461869166146954     47.305660269488264
H      50.621950855481899     50.863856814354001     49.468193875963976
H      51.354985192727902     50.163892435605796     49.904922973531292
H      48.322564880581460     49.647141249434434     49.821669272519991
H      49.635798507750444     48.132228428986537     50.921806554230542
H      47.847057309183789     49.275258823696149     49.358597229066689
H      47.966500930505362     48.946401622652864     49.880570117537765
H      48.995049596538060     48.392700312602145     49.647817653700926
H      48.609432992087200     51.276391745903958     49.146126867085691
H      48.322186340149528     50.884043905993543     48.798968403370772
