38
lj38_benchmark
H      50.000000000000000     50.000000000000000     50.000000000000000
H      50.497239653512715     49.947685977346772     49.686775045748803
H      50.357789246169496     49.306065516514387     49.689352138975117
H      50.412206249139942     49.167913797962356     49.031424421297508
H      50.264566133913426     50.117084982578191     49.169781658480453
H      50.987535103864282     50.068442818868036     49.233713935653419
H      50.759438833739210     48.924633410005235     48.572501688641694
H      50.339776604631290     50.473211634817098     50.412598413143684
H      50.686616133722659     50.980452856221746     50.424912435263288
H      50.470181453483455     51.245339021318898     51.150137367129112
H      49.793701084703507     50.880021228679638     51.202990625377502
H      50.628782711771514     51.683972602647273     50.099704706794249
H      50.676557859102921     50.000361819619506     48.729390848807753
H      51.334077410689574     50.474051365351997     48.885640648758439
H      51.371692070654071     50.821663368218090     50.591347851561935
H      50.473422740078483     51.026446078925254     51.694941284387767
H      50.366251523361754     51.083283697819930     52.431153507709311
H      51.414989708716334     51.116431483632311     51.187851721396321
H      49.906242439067476     49.624782178415813     49.173578842109187
H      51.067688247974743     50.887225762017877     50.095892621518871
H      49.658381942814401     50.587067679586347     49.791767666522709
H      50.192296353835658     50.488847241110165     52.131736413040755
H      50.847916158215781     51.555052976896292     50.906523696053647
H      50.526884294023986     50.852491808058538     52.889024647900882
H      50.558418165883168     50.034006285388145     50.848287137958778
H      51.118984464582894     50.559669640502023     51.031957374206762
H      50.864229349829841     49.406215337592997     48.003878591446572
H      51.582961358161405     49.778806454003202     49.326844325687283
H      52.161013800010146     50.819783008593625     51.246768482224944
H      51.872291014681693     50.735415602140733     48.632427490237198
H      51.072416864545161     50.631042441739453     52.945113205666551
H      51.773442666654667     50.611813540704993     51.539243972834548
H      51.198626081453270     50.270737030653997     51.779103149149236
H      51.724341418079348     49.262331932029426     49.640326700559015
H      50.418710330725659     50.721356030737738     53.546981082438194
H      50.650383615948115     51.164960656547905     53.723583327762427
H      51.085066761066258     51.343824886996785     50.303018034924946
H      50.215667323345713     48.982893980996096     50.097854973924484
