38
lj38_benchmark
H      50.000000000000000     50.000000000000000     50.000000000000000
H      49.772400395904022     50.476997892001982     49.666371312708797
H      50.471476910755165     50.536066835267135     49.956220758986618
H      50.887017740664263     50.458796947473019     49.636197156402716
H      49.375256421871008     50.711482845990965     49.866471012258678
H      51.477452050677847     50.689067777849822     49.663855413814481
H      51.493417039135544     50.182903574883419     49.452351307843891
H      50.620612944045348     50.946230663059708     50.345495565343960
H      51.454480516048221     51.325906198167779     49.309074177524025
H      51.339308573417036     50.257046591315067     50.329384668303035
H      50.155272491690177     51.192991218323591     50.815199298428766
H      51.745917619054651     50.706496342282513     50.114753389080711
H      49.763780885872450     49.359802809894525     50.191289833019049
H      49.313152723439153     49.488287076115569     49.558342394780311
H      49.474527841688712     48.823877374576092     50.071097662030532
H      50.969680548387835     49.658246260046631     50.393015712479986
H      50.716392186713733     51.254027662738501     49.622794857622097
H      49.829891943419774     48.655538460032197     50.510169821653591
H      49.765575663548610     50.759420046778366     50.904139828849083
H      49.456328101581661     48.830117746508094     51.100403695722541
H      49.017998285696166     49.426232314001311     50.152354869484128
H      51.858066986695079     49.712853700090882     48.926249654927247
H      49.768020995615579     49.248497268098482     51.559808897689138
H      51.166164650169478     51.002681180659302     50.487968816192875
H      51.074413650907069     49.831679438403853     49.467759998244254
H      51.056830358652789     51.061138970982263     48.998068390713811
H      52.035476197922833     50.973217905541823     49.403554091522238
H      49.431479792049018     48.146730731674829     51.138447159748885
H      49.721123718066998     49.102212874068101     52.149182082964586
H      49.905186111475160     51.522374865079897     51.216148154275558
H      48.946703247330106     50.416609033400050     49.580255329957488
H      48.540036472477524     49.977591749903091     50.182612488019842
H      49.430766582949403     51.220206509902653     49.341638555189796
H      49.970099020762397     49.457429470712043     50.940429544667751
H      51.031101335934999     49.100877407815148     49.345738383946454
H      49.414372434201908     48.296843835007635     50.653334048620145
H      50.630217592111165     49.743121802201934     51.275367058698158
H      52.209413017465401     50.329528756876414     50.063824506013873
