38
lj38_benchmark
H      50.000000000000000     50.000000000000000     50.000000000000000
H      49.434750248129461     49.812996008068716     49.530609531860428
H      49.494710818915046     49.769277466008042     50.371703014253391
H      50.027440949370877     49.765258765093378     50.896603019964175
H      49.736781319038109     49.315845527213391     51.008863793790873
H      49.246768803257829     49.195322688863072     50.927755046363259
H      49.812970825558217     49.614010315902412     49.094330981486031
H      48.917362972789917     48.550138866791436     50.716146897696461
H      49.718398181779868     50.278101457207136     48.664383904173171
H      49.529845722367874     49.192928673481546     49.901600767255900
H      49.545866567301822     48.603186738597941     50.070546372930963
H      49.463973289784228     48.248439148799569     50.766519295691964
H      49.093809793911632     50.285381869048045     49.668767196113663
H      50.085820611961843     48.623852175366643     49.927760680067237
H      50.566201152179623     50.067785073308642     50.772333396706749
H      50.644143170245385     48.545309127614864     49.824545381747512
H      49.540962231288269     48.813423127391225     51.348962906636174
H      50.598883459191278     49.593152522530772     48.949189620471529
H      48.903945206000031     49.938830624831020     50.785978991422994
H      48.911099509826940     50.607441444560024     50.259429088011522
H      49.987345055673913     48.022237127136727     50.311295338246424
H      49.186636847542850     48.772119242298942     49.604330662092003
H      49.055380428948560     49.380154209490613     49.426369287562331
H      48.934372236670114     49.600254157735115     51.269632345076168
H      49.336557092714081     49.501601712722227     51.594905066437079
H      48.515339647095239     49.430889534238212     51.484699782126647
H      50.238229221099452     49.225572614910746     50.685335143595864
H      49.982534866971925     48.765123124212600     50.939649149965916
H      48.389814864556932     50.112886950346308     49.609347275401674
H      49.815675003943063     49.674996899840757     48.177512252197175
H      49.229986068423521     49.376409674780227     47.730889145641385
H      51.009807286492375     48.992979772302455     50.231064207330064
H      49.059969313783505     48.962035573196971     48.913318978066883
H      48.865692279625669     48.119838215881913     50.371857427490212
H      49.471892280851506     49.852318475795890     52.062503857661355
H      48.667471903395381     48.738903755859880     51.664870517781317
H      49.298725022085883     50.273791328516864     50.930157605390065
H      48.637142186393113     47.433573625650709     50.656412323072388
