38
lj38_benchmark
H      50.000000000000000     50.000000000000000     50.000000000000000
H      50.256516633769593     50.092506099552928     50.641795399369130
H      49.779852103012480     49.458160848749941     49.549070885751085
H      49.833663611367086     50.306939382918621     51.099937055977207
H      49.783185645464854     49.044786395074397     49.057998401748414
H      50.647452773603568     49.946913314418140     50.034529345542694
H      49.071521018279647     49.265993593353130     49.877928943421331
H      49.885627416524891     50.450998314938580     51.833298770992258
H      50.272004628118900     50.672831993950091     49.953742751528033
H      50.071886253143752     51.279656239053622     50.160634981674214
H      50.197100863316621     49.202533492789719     48.747404690895479
H      49.391164257231040     50.402742805139162     49.972398729118538
H      49.485930042762249     50.121593772927476     52.224141339074265
H      50.864452173649354     50.266658589106520     50.355425492538046
H      49.873232910636411     49.346926207137116     50.416406196229318
H      49.685518812313447     48.763843861630505     50.932370531219682
H      49.151881499555188     49.729867311648583     52.313599357469670
H      49.754663677140712     49.774288710347193     52.539851693537059
H      49.520764513410441     48.601784001871849     48.797742306398227
H      49.452868350885481     51.284126017349514     50.045442984089831
H      49.334518764571179     50.352796740599814     51.623907968659211
H      50.394969291833355     51.590979779820692     50.516444886179386
H      50.341220294895322     50.908223115360805     51.857907351668381
H      50.400711598137121     48.723743688296295     50.644249793664486
H      48.435881826453148     49.785389270102250     52.568599426519121
H      48.804593287878866     49.984279809524352     53.215956069488399
H      50.711798939926169     51.227433400315746     50.240953918405566
H      48.369967041790410     49.350428193053567     52.273153269985116
H      50.192200622155198     49.416081347715973     52.441214368601393
H      49.912242162086905     48.921383402599076     51.665223635535071
H      50.005620929315619     51.887093175307456     50.320609328841584
H      50.782841281034663     50.624133035820400     51.651261896618614
H      51.310144745241644     51.507830439115487     50.353151430093035
H      51.494143909765583     50.873431278112847     50.132438046677080
H      50.268969518133638     50.522808964419170     52.193862409254457
H      50.431888056749578     48.580502246428686     50.078866784438205
H      51.064876266535776     51.385611547172907     49.817820155378648
H      51.054627561319776     50.906140497632407     50.516775083711515
