38
lj38_benchmark
H      50.000000000000000     50.000000000000000     50.000000000000000
H      49.991835399097461     50.151913693872622     49.273988298710478
H      49.513886854067259     49.945383385046568     48.753555229798252
H      50.611130953997332     50.055524167981972     48.828506439505396
H      50.172359992159066     50.652159918412913     49.642312514051333
H      49.489634437312844     50.652287583449613     50.038346799637729
H      51.098455050628118     49.753325491410827     48.492735725721062
H      50.042857061835434     49.585077493741366     48.352493817308662
H      49.671568303752835     49.942141919252791     47.771167815849616
H      51.225123709978391     50.135565049728278     49.125027757847164
H      49.400904166614104     51.243476682569273     50.245901106553589
H      49.473470959378758     50.332120618245902     49.321949166378289
H      50.299869733515742     49.664742644577302     49.680941819115375
H      49.466884145010482     49.315322636571040     47.976217062404395
H      50.679842687297644     49.258311348474727     48.481498867077839
H      49.804618302506881     51.049684393512138     49.511738833378814
H      50.409711204156899     49.564098613924735     50.294832652288541
H      50.752842901622557     50.144752782208414     50.054496057336017
H      49.614999462659789     49.664920982511134     49.565495362514127
H      50.368060121097386     49.855141795302615     47.697159632068598
H      49.344640945653367     50.086627291360017     47.259083834550808
H      49.575261402482454     51.578405945214740     49.861448355321222
H      49.914187970769213     51.629967041276629     49.247631305906125
H      48.655186222741001     51.384598452419603     50.056727801097729
H      48.980750800959626     50.476377378124852     49.974462492221718
H      49.251883734447368     51.941008061255260     50.174144919523776
H      49.915104473604693     50.484533202301577     48.356611493586172
H      50.118746805252684     50.722269232234034     47.789284989388847
H      50.787590641055431     50.508492730945463     47.467129657589993
H      49.684884407361501     51.271430479171649     50.787100551539837
H      49.696364554788417     51.901418912051810     50.498362398167551
H      49.768835580623950     51.870066174854337     48.619178372023299
H      49.507580732221818     50.028596448591209     50.128796169308600
H      49.832734917525336     48.692539063245370     48.148457875716382
H      48.602331568332097     52.342245218674478     50.284581004557658
H      49.626562155193938     48.024105270382130     48.004238998808582
H      49.853598284447479     50.743984381614936     47.261909888585983
H      50.443753843596326     50.789926959534171     47.055141258598191
