38
lj38_benchmark
H      50.000000000000000     50.000000000000000     50.000000000000000
H      50.442078444269391     49.889782101777598     49.453836331626846
H      50.222909183414075     49.298040560129849     49.736014084999994
H      49.441417541451742     49.908536746397282     49.520996206777752
H      50.340209577046856     48.612633698723052     49.841796599747632
H      50.694796594284966     48.036046811431355     49.617370705969805
H      49.824295992725368     50.742403745965248     50.137411906755396
H      51.032827392082183     48.611500013655778     49.245091313446537
H      49.212016539978023     50.691386894091359     50.059329410089013
H      50.543019310609886     50.000840584117157     48.862391644287605
H      49.636014530663488     49.463908743611640     49.781252875763734
H      51.506480262495316     49.120789851371974     49.181581779710214
H      50.239810428094785     50.665982015956175     49.567030822838284
H      50.344834035206020     51.196776569965330     50.446235246276885
H      51.061237811292891     48.035723924092501     48.911713057422261
H      50.858253348096433     47.467628443640393     49.174587703906369
H      49.999387121911866     50.002923833258208     50.600231285523968
H      51.474439941575810     47.197036210882473     48.756825094145270
H      50.743080956544468     49.364428567556104     48.631176757228971
H      50.769786471964636     48.864872549949652     49.816308745982923
H      48.580424605345037     50.651260311118278     50.488976788234133
H      49.916198486976285     49.549813165603119     51.086396235923601
H      49.789620715005789     51.216974568002797     50.518246625352312
H      50.813837887523810     50.479945779888872     49.286476988209429
H      51.108559267388742     49.763951293203775     49.119475991138572
H      50.836008933869962     50.962296134434865     49.115787706132366
H      50.283283810678000     50.472128782538064     48.752584962818759
H      50.508792981154222     51.364676845532422     49.177333693201504
H      52.067575319030468     48.894754251688546     49.614630330831517
H      49.137319271778772     49.810088493674776     50.223882804677892
H      50.210948811066139     47.851301374446358     49.049426728026617
H      51.611897866274759     46.662814369124966     48.644688089528913
H      49.559459442678481     50.369410688681995     49.045454199526539
H      49.198873925163632     51.135365871125849     50.492074412987137
H      50.732309162408747     51.704885119578449     50.575395961315252
H      51.568744181947316     49.946190595585136     48.826432888263419
H      48.571300038217565     50.249452773730297     49.958816868123627
H      49.856411896345250     49.183299310135538     50.267008341440302
