38
lj38_benchmark
H      50.000000000000000     50.000000000000000     50.000000000000000
H      50.563097197512143     49.767608831031090     50.480484670161978
H      50.122272142903824     49.964826398962309     51.093135086340808
H      50.418578315489647     49.700322028236499     49.668524205124172
H      50.190484865916524     49.412439567195989     50.239238881070563
H      50.969956545037853     50.031443335318514     50.908371002668915
H      50.807901614733154     50.355716773653882     49.554815717783598
H      50.721042277390673     49.479895501947937     49.021438808342900
H      50.839050375778555     50.405995600396324     50.323333828554802
H      50.401929352479499     50.075536137790202     51.693152096208308
H      51.706491334294029     49.956335878399379     50.605628951000483
H      50.446771612711622     49.978360771117501     48.605226381832139
H      50.278081538227909     49.202745208251891     48.601295933454423
H      50.428400794367050     50.237484505370752     48.137684955079855
H      49.504908807587022     49.875337120705289     50.268644055648899
H      49.986711575683344     50.369200603284845     47.898714905319657
H      49.913577705308974     50.044323766024469     49.257595385096380
H      50.371471098243809     50.905202514694068     50.664274643761246
H      50.606539616028329     49.593429094269339     51.376809505752803
H      52.262451688232098     50.118145281629694     51.108003222552661
H      48.787879833860785     50.221799195710176     50.347113482411778
H      50.779765142232328     50.304797541748286     52.252478223762701
H      50.661279991058073     50.781045055431143     51.387703119705456
H      49.259015315602582     49.692980062973284     49.254978400120592
H      51.172974017169707     48.875005146456751     49.149039567312805
H      50.047572527251248     50.619239771419501     49.898855024397065
H      49.530133099273712     49.899981504181810     51.564536611391354
H      50.064412486085196     48.932305638177858     50.234897632955708
H      49.393397523699932     50.498519327594586     50.174360910889433
H      49.673933079097644     50.195987769622477     51.130137960736988
H      51.435289123740347     50.529913084621413     52.613227009864332
H      49.240154988661160     49.109779356242399     49.040562442384044
H      48.377097173901433     49.730032951955451     49.992212573129912
H      51.238238310074095     50.978359555851810     50.359774320806430
H      51.363586904262561     51.347693713692195     50.676805383261112
H      52.264734566245522     50.679510789616181     50.626336927805674
H      48.753497589755007     49.261745351589411     49.180444824243835
H      52.209343079663867     50.407690362584020     51.824269322242095
