38
lj38_benchmark
H      50.000000000000000     50.000000000000000     50.000000000000000
H      50.348404368743601     49.540398653883614     49.586456899579815
H      49.926523451016180     50.608009182845031     50.401029607110537
H      49.535500846629212     49.558629455113710     49.937158243881825
H      49.168568956169224     48.939735352714699     49.619868023275693
H      49.998021950405857     49.879971656427934     50.734360422863496
H      50.282575725428565     49.665908134749081     51.403020485978423
H      49.735537386967252     50.447027700305057     49.595097642190872
H      49.985027604778750     49.372628096265117     51.810148923981700
H      49.070135298184475     48.342915554352530     49.349025504572296
H      49.302409477929437     49.278816661877848     51.507614651245937
H      49.591117076455156     49.066201584453864     51.139709787173551
H      48.979925931169866     48.966476109638386     52.153630474009269
H      50.664288526632511     49.287044645991600     51.430940612290925
H      49.957615536543372     50.301574948230105     48.978522432748136
H      50.481755960640463     50.004124059240546     51.770453013091732
H      49.544479340743379     50.962301078344737     50.754502996531834
H      50.108650595049809     51.299180737946813     50.204331670839153
H      49.666827456863373     50.651526971389160     48.717349407973408
H      48.829805290981554     49.554851481162821     52.283525915007267
H      48.469743814224451     49.799895851003377     51.897260535121525
H      49.940723630620170     50.409596218857651     51.236705275767569
H      49.645948661590893     50.598743705658372     51.836169594668370
H      50.382070569703941     49.574809057409126     50.298360666062834
H      48.649728436709069     48.136635043936998     49.662567953217668
H      50.085038135857388     51.904252853622353     50.548162571396183
H      51.428906793736417     49.323201436707585     51.641149421583663
H      49.655135590966637     51.198160319093951     49.442737068739234
H      49.279735905493389     50.486561250107364     49.388329418753685
H      50.831275505998441     49.804086440212515     49.120411933157726
H      51.628226541581654     49.038622976113125     51.222081281757980
H      50.430235581886784     48.893241684423778     49.679654688145007
H      50.112657809899112     51.083438768520210     48.539405660133362
H      50.064398045412325     51.439313820703362     48.983341394308475
H      51.596445392129041     49.752084353610535     51.174031439753335
H      48.855589021770982     48.847503019133455     51.387611721268179
H      49.980220746067012     48.518249939106710     50.152806077352281
H      49.220870241052289     47.800583659597706     48.980991176060662
