38
lj38_benchmark
H      50.000000000000000     50.000000000000000     50.000000000000000
H      49.527727439044781     49.653282894294243     50.261276979714495
H      49.548838688903494     50.358136474227337     49.677392414741647
H      50.304892161885050     50.161573200448970     50.648087544260086
H      50.834490507474975     50.356122333294635     50.277351843886521
H      49.276546884491587     50.285743377613329     49.136357234317110
H      49.145320110933262     50.042134559027041     50.306536751905682
H      50.486473407902416     50.808761794937141     50.210249462239659
H      49.714893000965063     49.382515341935004     50.816987123811224
H      49.978694780663282     49.986505860961898     48.918601746601503
H      50.400443632164439     50.543187955951986     48.911537534786177
H      49.474289831141540     49.152313771333461     51.310775561203542
H      49.261349719065649     50.246453558789653     50.936970786987615
H      49.496448483654994     48.563770277866261     51.042898642315528
H      48.765395505338304     49.792688908745340     51.312554528836145
H      48.133363492317713     49.661664141525115     51.022068908326517
H      49.491471610650521     50.436028150730884     48.567017990557439
H      49.453031867926015     49.920005228758882     48.685172975152845
H      49.720214181809467     50.427065718136447     50.651069773821291
H      50.014512400284531     51.381655823908105     50.180480190645660
H      47.568637039554091     49.539294527497454     50.732423448045317
H      50.926140563276270     50.667844115376376     49.434717660383143
H      49.878606336760633     48.930583399241371     50.566191502534984
H      50.363984144664379     50.068277394301056     51.265881849635377
H      49.978694769167646     50.700437361535222     51.209958340467182
H      49.051665045060602     50.084799267086289     48.037445880171497
H      49.039708327042561     49.436006391566998     48.626530080833248
H      48.622873840871044     49.447503950679462     50.979518198593290
H      49.012243418841429     48.777764147917559     48.795075311284684
H      50.559162208348972     49.143246901934752     50.325776734410148
H      51.024228884830599     50.329968567171512     49.011301690700762
H      48.655624499592065     50.353108728750662     51.146666318319546
H      49.140579636918353     49.347573788615634     50.440877479613370
H      49.390560771114046     49.001639492026001     51.798706132463032
H      49.173405529167063     50.791943502031920     47.838556468128459
H      51.021279821229378     51.166495277513164     48.917043050121876
H      49.914883076475860     50.674474205025476     48.382345196913157
H      48.983845987613222     48.160187180931842     51.510500390048179
