38
lj38_benchmark
H      50.000000000000000     50.000000000000000     50.000000000000000
H      50.576319848817874     49.638662398374699     50.352894151357447
H      51.066045736751548     49.561648347554950     49.784728749002106
H      49.237389760363577     50.182872998668408     49.881848648458117
H      50.185940588830007     50.117875401428449     50.620668699006139
H      50.614895230077721     50.522845204592507     50.194241331626642
H      49.134006532949250     50.815422641026061     49.716766783890364
H      50.543026134834996     50.820833380012019     50.651064872684955
H      48.530436716038523     50.360717370022229     49.613110166464388
H      50.224210623139783     49.528172178644013     49.508537409003239
H      49.892382822662071     49.690638784344031     48.838169999845270
H      49.040631973520426     51.487336859883115     49.599038350882417
H      50.862966569004051     49.001345879150243     50.420498498601610
H      49.628930549840639     48.989737948546185     48.938287712300934
H      51.021060467343339     50.753891001408689     49.615135372286510
H      50.892895047208043     51.060832556757795     51.061076093576347
H      48.757404407050025     50.444456326823072     49.139256188713851
H      48.472035336163508     51.479221058522576     49.538432810561659
H      50.611055202542445     49.944330267493015     49.939174904038119
H      49.285225680535497     51.910707304034638     49.362533857672318
H      48.809057871309889     52.095480822836350     49.916956202239852
H      49.152359949471112     49.537809963332506     49.613259868423668
H      51.380894477366525     48.965118356874548     49.446992669408530
H      48.666890481034017     51.774965811104977     48.819679065711092
H      49.368824763896804     50.510338037049920     50.363138684604067
H      50.481141920473895     48.701626020328682     49.834113931462447
H      49.894594834469103     51.043605358689206     50.287662294893636
H      49.519775189484989     51.341270500604580     48.916456023957565
H      50.053286049482395     48.474577769820563     49.170986667989943
H      52.038102122366219     49.118569073385757     49.679816729612341
H      50.457816034250889     48.610025600352159     50.325739370391886
H      49.730919207508961     49.761842316112073     50.893877795614621
H      50.639234585120384     47.938639420391937     50.442422267155628
H      49.347788348758563     48.945678089848954     49.646574375707836
H      50.350508958522148     50.208046337921090     48.642020196649348
H      51.101117353608451     51.413858091897190     51.389152595801356
H      49.163912620206325     49.823570793375893     49.171649840618883
H      50.319276811226999     49.662294463178533     50.786821129369287
