38
lj38_benchmark
H      50.000000000000000     50.000000000000000     50.000000000000000
H      50.212197077481484     49.620138340029520     50.508287443287593
H      50.313369844363244     49.138374003491421     49.986229319389444
H      49.603599359050257     49.786801766533642     50.367331393474657
H      49.160525741362157     50.153919771916449     50.162084687035531
H      49.639580499751204     50.383076709782031     50.367299224302315
H      50.501636482408927     50.492338322179066     49.857421334449910
H      50.399503866076081     48.813220569030221     49.486782042288837
H      50.918888470862306     50.817260848187750     50.368494190769518
H      51.050895708447605     49.116941118323808     49.175670401432498
H      49.563261409689687     49.408928403549481     49.881339816705406
H      51.514851463962586     49.582254736789288     49.190504945141598
H      51.095212110520833     51.283842715607371     50.587107122079338
H      51.843373800912879     49.271220277266465     49.489904057144905
H      49.180343696904188     50.996141603797042     50.440484421290165
H      50.274507417530010     49.981313401862380     49.414518254221782
H      49.848012536322258     49.895281136377449     49.085467169160218
H      50.631403904250483     48.405178374008798     49.210130224852470
H      50.810018444442377     50.298202354820042     50.593630360922873
H      51.629621207952084     51.046131015863224     50.834335463235398
H      51.401098028318678     50.037163130870958     50.256714076473578
H      51.282431388446611     48.151676382246002     49.468870528076188
H      51.075309164792742     49.479977554041852     50.103571739372043
H      50.624899010794998     50.392811639678150     51.246276034989265
H      49.170966106927970     50.052095095504733     49.513235106218183
H      50.275543442355598     49.953060885094544     51.510260505101165
H      51.720665013296973     50.391941484800135     50.115481960538162
H      48.940392292296373     49.848381120665124     50.545069606814678
H      49.557414386404524     51.585796638009676     50.175453585443329
H      49.916024035852601     50.185731737245170     48.434991948705566
H      50.988098648226696     48.138097852980835     48.573622780542067
H      49.270945237757047     49.665743303191363     51.137602903006368
H      48.629901946244679     50.460385651781564     50.893521016389030
H      51.694594912701021     49.547956219769155     50.460002995486633
H      48.383693165093710     49.948140755044555     51.230887184804757
H      49.865970467229928     49.005577639916325     49.292481439699834
H      49.413405203913321     50.548641668951980     48.137354200999120
H      50.230578501799926     48.108504158543070     49.351284386363247
