38
lj38_benchmark
H      50.000000000000000     50.000000000000000     50.000000000000000
H      50.041396057278668     50.568492607012132     50.475137604611248
H      50.187727590666555     49.442862320368967     49.569980138517622
H      50.416707707339484     49.040339270942525     50.037445236784457
H      50.080752049315898     50.889489035961077     49.792543349198922
H      50.203258866875295     49.239268517294633     48.926132745980652
H      50.299214420848720     49.271187977748063     48.234880503882792
H      49.814230063403102     49.127868014525902     49.794647768104788
H      49.685143684282906     50.067095803644229     50.424980371611085
H      49.372937840756848     48.931445660435578     50.295215447279787
H      49.820557501682181     48.691293780605861     50.184428313408681
H      50.061584474418829     51.519107570474048     49.421711002636407
H      49.496063817196017     50.865727002795047     50.815235596041049
H      50.411829236241630     48.317379080468179     50.555495717476418
H      50.184990347180396     48.251915909833102     49.857502831390683
H      50.546595417488206     49.550091104471676     48.710642917909077
H      51.039191121495904     47.897510995783570     50.311303149370559
H      50.103639591345370     49.870305705147047     48.569724827872001
H      50.727089170584925     47.596519556744518     49.993998889032646
H      50.595780697245594     51.055901131204457     50.143653372896686
H      50.824917625353940     47.407119058619806     50.783997823014481
H      49.308181229436023     49.452332756178635     50.629126651051457
H      49.815480102042798     50.208794328426464     48.948081420631134
H      49.064944040018034     49.949570574205033     50.462874204049513
H      50.381941608276087     48.652458755462000     49.147736787740442
H      48.568022190073151     49.802171603046958     50.653920951164125
H      50.483322501511921     47.050112091372903     51.414171659335679
H      50.312824271250136     49.762425436270803     48.072002539644537
H      49.882195122747120     48.366493202268501     48.772377393371457
H      51.210972309684735     46.724066064721512     50.733751859877366
H      48.726034420620735     48.783732495656480     50.243974346420956
H      50.469846496206898     48.653632059934260     48.348666582464780
H      50.067344627722100     49.508763216150356     50.764453944610416
H      50.443647774403686     50.260925450296206     49.687281768009214
H      50.539945093911399     47.890294001675535     50.778409824741239
H      48.512587631440326     48.622683565016750     50.940048266826835
H      50.130104973410781     47.021875298199447     50.980908257778381
H      50.762469717695630     50.817125129679368     49.273220686202166
