38
lj38_benchmark
H      50.000000000000000     50.000000000000000     50.000000000000000
H      50.294508593104297     50.672479299943419     50.125613400778256
H      50.821744548468544     50.392234985565516     50.584671862594121
H      51.316336014296908     50.082563243382175     50.236109227153825
H      50.008428920550998     51.114123190385406     50.728664438629693
H      52.004373551825459     50.326938894823243     50.065388643932970
H      50.543383083935339     49.867931160985265     50.822056685022567
H      50.215517035810819     49.383343267735746     50.243284478648704
H      50.825355414719468     49.549419521352412     51.343478015347777
H      50.013810217938392     49.603735429135455     51.136048349663120
H      49.816812860895446     49.025656184015986     50.419228258176283
H      50.253841099606511     48.894469322208955     51.198975745095261
H      51.346909178534098     50.529286533921045     49.732626323138994
H      52.635270186348102     50.546094403650947     50.234599006964238
H      49.715908312261426     50.943677364934956     49.862744890833739
H      50.478617925900167     51.619552551343233     51.110676160502877
H      50.147395208270190     50.353397842373475     51.035798079745604
H      51.994530433020714     50.249714866859598     49.347673763322639
H      49.383337712869874     50.744083891770771     50.271224291193853
H      49.330419919162573     49.272692156874712     51.303372925182295
H      50.557243909100258     50.215002758121827     49.463839027411169
H      50.801062068925134     50.344165141340810     49.032000417819461
H      50.372716921438695     49.667277007379752     49.325210703563002
H      49.686399771962044     51.360858699377637     49.485210897737616
H      50.802609190749642     51.867635903568107     50.637555191715002
H      49.622846735305686     49.674700899396733     50.582377751115104
H      50.094779837389311     50.540423733611725     51.504829235263863
H      50.174801969004008     51.896710008245833     50.208633600719331
H      49.607302770786568     49.149576966430317     51.857911451307373
H      51.357589014032001     49.303445529790295     50.053874739917099
H      50.871287789641272     49.597859220684470     49.539769864130697
H      49.542526724579290     50.548715062568903     49.400172935835926
H      49.070349956095690     49.459288789165974     51.903718414250214
H      50.751930469884073     51.000399502840494     49.771031408285573
H      51.233527978414529     48.941905552168265     50.472180045473941
H      49.304153254593288     51.274617391920522     50.262327410761081
H      51.142718774890930     49.836949686450069     50.912531004998009
H      50.296006592213267     49.347190978582368     48.725798872928408
