38
lj38_benchmark
H      50.000000000000000     50.000000000000000     50.000000000000000
H      50.371856433863918     50.006235375928782     50.571478450728918
H      50.532193887254905     50.052958116717804     51.221470104312090
H      50.494449167936779     49.799521953504332     50.021656087973369
H      49.786849854461508     50.082826437753980     50.835904319663584
H      50.068880942831370     49.417374177547238     51.173615024156597
H      50.543194081666037     50.165370026403636     51.824872707126232
H      49.321219642260175     49.493602653990770     50.937743173816564
H      49.192842782787409     49.958533082546559     50.502150738801632
H      49.576873519218381     50.137122834124860     51.324981170573558
H      50.595203757767678     49.276510474137893     49.583647126601392
H      49.120509301793113     48.730233477326081     50.995575511740064
H      49.713834767761725     50.731640451489895     51.270232057076015
H      49.787367770812544     50.525435484731148     52.010634905851326
H      50.367258575923110     50.176116998720879     49.376354861811862
H      49.629344447644179     50.132206128134854     52.305354217712917
H      50.256489780867227     51.042300531687523     51.645539948032777
H      48.918295017845161     48.778397329231971     50.310473873986687
H      51.085111137049047     49.454040300787035     50.108512900092798
H      49.887705940102123     50.175122471574333     48.818768211173357
H      50.657977990762184     49.330312932053928     51.132258162265799
H      49.240869615271762     49.977520205729085     49.740720759700736
H      49.450151995379649     50.953648032429200     51.883305412490252
H      49.108860037007759     49.245800505142356     51.594951640352292
H      50.142834620906456     50.822695539243064     50.759193286459976
H      50.991597559058974     49.965130587240481     49.421840205197839
H      50.319523369053208     50.541551715658457     52.551617134824937
H      49.172894792300724     51.126032561154993     52.353115119976145
H      48.791754659516890     48.144204405766835     50.569148677215694
H      48.729835183498686     48.746368490135225     51.751282568298045
H      49.520114617746586     48.784048322462631     50.508977070379593
H      51.389288672955416     50.042461933779222     50.440920458536169
H      50.581874776661166     50.388580761563681     49.999055210639789
H      48.471735668953436     47.538971731693103     50.475383444016366
H      51.019455039331781     50.835054210729226     50.218380704207071
H      47.788909559000480     47.537289688229890     50.734015816742492
H      49.432931137639578     50.470860155429442     50.238236607735125
H      48.528916296088390     48.905275278609288     49.721348757543836
