38
lj38_benchmark
H      50.000000000000000     50.000000000000000     50.000000000000000
H      49.524855680615090     50.121074813226137     50.356391639263975
H      49.807963336841702     50.115516343168864     49.354401840752111
H      49.096231644783877     49.978357034460196     49.164729076300240
H      49.449884268698021     49.352692784866314     49.200000380648760
H      48.948528053048406     49.972218376083056     50.797733513785928
H      49.401134608188855     48.719328771267108     48.959094324568497
H      49.640132424459978     48.233416786816136     48.927902984762312
H      49.221260383531273     49.600606444748315     50.326406281972389
H      49.936320445596323     49.106324021025181     49.277285335218991
H      48.529175348479882     50.451267493064442     50.709073632930540
H      48.626432724840527     50.958094644245143     50.703939028479667
H      49.713263656235746     49.479479913317505     50.308682754561659
H      50.497437824552371     49.525662447857819     49.634995036229974
H      48.856894573731097     49.864988096210823     49.851706565018986
H      49.055212573731978     50.417414239269043     48.514473997531013
H      50.808402910936593     49.828809212761534     50.234731845166941
H      49.271857280388161     49.745503827052161     51.234020988551535
H      49.635780738284630     48.575724594782230     49.667339469847661
H      49.790887898807135     49.662373286649974     48.981929385547886
H      49.743141648740746     49.897343698038064     51.561675366011187
H      51.259430788305394     49.602343446646792     49.790675547934974
H      50.408660536228034     50.006662750752810     51.930732702177735
H      48.820008766285319     50.019560546454983     51.590734775012756
H      50.904936123614156     49.929549148917928     49.641334464949182
H      50.678332673701718     50.608303263506265     51.488949746167606
H      48.771685839627260     48.942496017346080     48.555651487126958
H      49.948156265007839     48.968770368351208     49.900425298062657
H      49.674002533568377     47.814372254619869     49.484047027217976
H      50.916449524063239     49.168922017430610     50.593038488037280
H      49.462000086384499     50.235986062272900     47.861166479594971
H      49.045440185164857     48.995263947731189     50.424910056094745
H      51.647005745108189     49.394323742215803     49.140764000081568
H      50.831484001968235     49.102771429572158     51.309884633537017
H      50.772703430807802     50.067421045016189     49.167572010114810
H      49.069270962587197     49.337108290913193     51.699279780904433
H      51.553350604465365     49.007675338998517     50.400142466334316
H      49.020597923778261     50.064329405885886     52.341485039831468
