38
lj38_benchmark
H      50.000000000000000     50.000000000000000     50.000000000000000
H      50.060933589291253     50.063984531152677     49.490231144287769
H      49.896579519619621     50.125640853225470     50.643702985739658
H      49.438489753624999     50.706383624465701     50.484964909503560
H      49.499365220749866     50.455593944755435     49.344246772219591
H      50.516895279837357     50.299947122116592     50.482403882089606
H      48.788162593955882     50.365313192278869     50.395272610164255
H      49.692825382876087     51.162044958764966     49.299105433883021
H      49.845143708884365     49.690633880731809     48.842420229013221
H      50.722002896390713     50.434454275343526     51.236363100630491
H      50.355904597358276     50.796603406598045     49.645747918012411
H      50.767878840559781     50.884597914276512     50.048096399475760
H      49.815495934509826     50.742006868068636     50.980552028818678
H      50.064573695241393     51.421598953262944     50.997047834480689
H      49.774355616896116     51.107015797675885     50.429419498205490
H      48.893504101233539     50.901209720215512     49.897032273768502
H      50.978536376457669     50.708546567319026     51.905205431099255
H      51.206993171331888     50.612244557453039     49.685596963338512
H      49.460807460299144     49.139239397984973     49.007139283141171
H      48.732071928313211     50.630233897338044     49.501652282936035
H      48.977905135834575     49.557466890222976     49.338119768250898
H      49.993567894633237     50.602032505472280     49.999572692950345
H      49.251859069103652     49.938053511453731     50.910602695369306
H      50.135094563730505     49.231788558052259     50.157490671947507
H      50.452538400587500     49.739205299036648     49.693772898295869
H      48.438656597699620     50.541005563351973     49.097222660548788
H      50.155323824889400     50.236301068876244     48.387621625554935
H      50.942920758778861     49.416320236981420     50.149136473784637
H      50.172559051121738     49.639910816061601     47.863001310366478
H      49.553194849274377     50.826832346390766     51.640485716940084
H      49.334138800339353     49.725182305017604     48.377572850283173
H      48.374465508696076     50.417796095562451     50.018309652664641
H      49.967050580294526     50.273829162106345     51.211013623243510
H      50.119457570624334     48.791036242452066     49.645852698567758
H      50.149286453090802     49.249325448976492     47.469199748273461
H      50.826771615506146     51.347533194388831     51.736251752024820
H      51.570569692246281     50.776878238518655     49.128322082624528
H      49.752157803767915     48.820919036945973     50.652857398962894
