38
lj38_benchmark
H      50.000000000000000     50.000000000000000     50.000000000000000
H      49.528437127303562     49.877226520445468     50.380385932123851
H      49.017531723261570     49.744869926032983     50.618689628734877
H      49.964586680550973     50.685634051160847     50.155474217149219
H      48.864351716087839     49.787280513516016     51.231786347634745
H      49.546047805097452     50.686399559032459     49.858919097938291
H      48.527471041834076     49.541584604254368     51.831781968729125
H      49.030705375354330     50.387989007728585     51.682700395764748
H      49.746821027325893     49.378577979615820     50.162874027840303
H      49.109997310354430     50.766261495628520     49.550475180421699
H      49.366063729226411     49.480283984399378     51.224416457800146
H      48.381513457622084     50.034774160197671     50.555638484288053
H      49.592279479440705     50.145905408154007     50.842590301955475
H      48.838310020622501     49.562453448905572     52.426776147157369
H      49.720021329699271     48.739282468519107     49.761711932085859
H      49.434943411875423     48.369532821996415     50.081330698022839
H      50.104784521011055     49.307754105269368     49.598955268090599
H      49.275031285309339     48.013483444371573     49.746197644718272
H      47.943014166454368     49.136664779870664     52.091408151261064
H      48.217328703516060     50.083298392599133     51.329236611655624
H      48.066258191348346     50.822938142108384     51.233798521491849
H      48.640880002054523     50.575069744696968     52.008303930819352
H      48.569600847058993     49.288258600939415     50.706549981778423
H      48.065498275476827     49.093125786590946     50.936651034994583
H      48.541184374231392     50.667055319592343     50.601827944236312
H      50.431964019752392     51.089166489387296     50.330710380993835
H      47.893176172219086     49.268018425530080     50.432211003219393
H      49.441779063063102     49.896099013952998     52.608221334690114
H      48.795347849646582     49.281105897920085     51.208280876802952
H      47.807361946439741     49.874749696096771     51.849329344415665
H      48.116598722169336     49.141791251302330     49.949538294367862
H      47.819460828541025     49.840535322388412     50.240903545907258
H      48.224012022095700     48.433675573328252     50.219853900095451
H      50.388997138412464     49.939426033245077     50.489392058372168
H      48.893241931860800     48.196914351450474     49.399886918816762
H      50.070830555356444     49.667403219159226     52.811272182743622
H      47.709006349652725     49.628827727853498     49.610125584005210
H      47.332787858623178     48.787777240348710     52.392814494759804
